<svg width="24" height="20" viewBox="0 0 24 20" fill="none" xmlns="http://www.w3.org/2000/svg">
<path d="M19.604 0.775391L16.258 3.91239C14.988 3.48439 13.572 3.21339 12.015 3.21339C4.446 3.21339 0 9.76439 0 9.76439C0 9.76439 1.928 12.7154 5.146 14.9024L2.235 17.8114L3.649 19.2254L21.019 2.19039L19.604 0.775391ZM13.588 6.55439C10.3 5.10139 6.907 8.46239 8.323 11.7604L6.597 13.4674C4.783 12.3074 3.372 10.8174 2.537 9.80739C4.03 8.15939 7.354 5.21339 12.015 5.21339C12.942 5.21339 13.811 5.33239 14.625 5.52839L13.588 6.55439ZM10.705 13.9854L15.795 8.99239C16.812 12.1034 13.792 15.0594 10.705 13.9854ZM24 9.76439C24 9.76439 19.748 17.2134 12.015 17.2134C10.636 17.2134 9.353 16.9224 8.164 16.4764L9.778 14.8934C10.493 15.0864 11.236 15.2134 12.015 15.2134C16.806 15.2134 20.119 11.6864 21.519 9.84939C20.79 9.02739 19.563 7.85939 17.932 6.89739L19.421 5.43739C22.403 7.33739 24 9.76439 24 9.76439Z" fill="black"/>
</svg>
